\relax 
\providecommand\hyper@newdestlabel[2]{}
\catcode `"\active 
\providecommand\HyperFirstAtBeginDocument{\AtBeginDocument}
\HyperFirstAtBeginDocument{\ifx\hyper@anchor\@undefined
\global\let\oldcontentsline\contentsline
\gdef\contentsline#1#2#3#4{\oldcontentsline{#1}{#2}{#3}}
\global\let\oldnewlabel\newlabel
\gdef\newlabel#1#2{\newlabelxx{#1}#2}
\gdef\newlabelxx#1#2#3#4#5#6{\oldnewlabel{#1}{{#2}{#3}}}
\AtEndDocument{\ifx\hyper@anchor\@undefined
\let\contentsline\oldcontentsline
\let\newlabel\oldnewlabel
\fi}
\fi}
\global\let\hyper@last\relax 
\gdef\HyperFirstAtBeginDocument#1{#1}
\providecommand\HyField@AuxAddToFields[1]{}
\providecommand\HyField@AuxAddToCoFields[2]{}
\abx@aux@sortscheme{nty}
\@writefile{toc}{\boolfalse {citerequest}\boolfalse {citetracker}\boolfalse {pagetracker}\boolfalse {backtracker}\relax }
\@writefile{lof}{\boolfalse {citerequest}\boolfalse {citetracker}\boolfalse {pagetracker}\boolfalse {backtracker}\relax }
\@writefile{lot}{\boolfalse {citerequest}\boolfalse {citetracker}\boolfalse {pagetracker}\boolfalse {backtracker}\relax }
\select@language{ngerman}
\@writefile{toc}{\defcounter {refsection}{0}\relax }\@writefile{toc}{\select@language{ngerman}}
\@writefile{lof}{\defcounter {refsection}{0}\relax }\@writefile{lof}{\select@language{ngerman}}
\@writefile{lot}{\defcounter {refsection}{0}\relax }\@writefile{lot}{\select@language{ngerman}}
\@writefile{toc}{\defcounter {refsection}{0}\relax }\@writefile{toc}{\contentsline {section}{\numberline {1}Einleitung}{1}{section.1}}
\abx@aux@cite{beer}
\@writefile{toc}{\defcounter {refsection}{0}\relax }\@writefile{toc}{\contentsline {section}{\numberline {2}Technische Grundlagen}{3}{section.2}}
\@writefile{toc}{\defcounter {refsection}{0}\relax }\@writefile{toc}{\contentsline {subsection}{\numberline {2.1}Computertomografie}{3}{subsection.2.1}}
\@writefile{toc}{\defcounter {refsection}{0}\relax }\@writefile{toc}{\contentsline {subsubsection}{\numberline {2.1.1}Technik}{3}{subsubsection.2.1.1}}
\newlabel{sec:ctTechnik}{{2.1.1}{3}{Technik}{subsubsection.2.1.1}{}}
\providecommand*\caption@xref[2]{\@setref\relax\@undefined{#1}}
\newlabel{image:roentgenbild}{{1a}{3}{Wikimedia Commons contributors -- Datei:Normal posteroanterior (PA) chest radiograph (X-ray).jpg --- Wikimedia Commons, the free media repository --- 2017 --- zugegriffen am 3. 1. 2018 --- \url {https://commons.wikimedia.org/w/index.php?title=File:Normal_posteroanterior_(PA)_chest_radiograph_(X-ray).jpg&oldid=255604419}}{figure.caption.1}{}}
\newlabel{sub@image:roentgenbild}{{a}{3}{Wikimedia Commons contributors -- Datei:Normal posteroanterior (PA) chest radiograph (X-ray).jpg --- Wikimedia Commons, the free media repository --- 2017 --- zugegriffen am 3. 1. 2018 --- \url {https://commons.wikimedia.org/w/index.php?title=File:Normal_posteroanterior_(PA)_chest_radiograph_(X-ray).jpg&oldid=255604419}}{figure.caption.1}{}}
\newlabel{image:ctbild}{{1b}{3}{Wikimedia Commons contributors -- Datei:Subcutaneous emphysema chest.jpg --- Wikimedia Commons, the free media repository --- 2017 --- zugegriffen am 3. 1. 2018 --- \url {https://commons.wikimedia.org/w/index.php?title=File:Subcutaneous_emphysema_chest.jpg&oldid=244474764}}{figure.caption.1}{}}
\newlabel{sub@image:ctbild}{{b}{3}{Wikimedia Commons contributors -- Datei:Subcutaneous emphysema chest.jpg --- Wikimedia Commons, the free media repository --- 2017 --- zugegriffen am 3. 1. 2018 --- \url {https://commons.wikimedia.org/w/index.php?title=File:Subcutaneous_emphysema_chest.jpg&oldid=244474764}}{figure.caption.1}{}}
\@writefile{lof}{\defcounter {refsection}{0}\relax }\@writefile{lof}{\contentsline {figure}{\numberline {1}{\ignorespaces Menschliche Oberk\IeC {\"o}rper in der R\IeC {\"o}ntgentomografie (a) und der Computertomografie (b)}}{3}{figure.caption.1}}
\@writefile{lof}{\defcounter {refsection}{0}\relax }\@writefile{lof}{\contentsline {subfigure}{\numberline {a}{\ignorespaces Wikimedia Commons contributors -- Datei:Normal posteroanterior (PA) chest radiograph (X-ray).jpg --- Wikimedia Commons, the free media repository --- 2017 --- zugegriffen am 3. 1. 2018 --- \url  {https://commons.wikimedia.org/w/index.php?title=File:Normal_posteroanterior_(PA)_chest_radiograph_(X-ray).jpg&oldid=255604419}}}{3}{figure.caption.1}}
\@writefile{lof}{\defcounter {refsection}{0}\relax }\@writefile{lof}{\contentsline {subfigure}{\numberline {b}{\ignorespaces Wikimedia Commons contributors -- Datei:Subcutaneous emphysema chest.jpg --- Wikimedia Commons, the free media repository --- 2017 --- zugegriffen am 3. 1. 2018 --- \url  {https://commons.wikimedia.org/w/index.php?title=File:Subcutaneous_emphysema_chest.jpg&oldid=244474764}}}{3}{figure.caption.1}}
\newlabel{image:oberk\IeC {\"o}rper}{{1}{3}{Menschliche Oberkörper in der Röntgentomografie (a) und der Computertomografie (b)}{figure.caption.1}{}}
\abx@aux@cite{kramer}
\@writefile{lof}{\defcounter {refsection}{0}\relax }\@writefile{lof}{\contentsline {figure}{\numberline {2}{\ignorespaces Schematische Darstellung eines industriellen CTs}}{4}{figure.caption.2}}
\newlabel{image:ctSchema}{{2}{4}{Schematische Darstellung eines industriellen CTs}{figure.caption.2}{}}
\@writefile{toc}{\defcounter {refsection}{0}\relax }\@writefile{toc}{\contentsline {subsubsection}{\numberline {2.1.2}Artefakte bei der Computertomografie}{5}{subsubsection.2.1.2}}
\abx@aux@cite{beamHardening}
\abx@aux@cite{mdt}
\abx@aux@cite{beamHardeningHerman}
\abx@aux@cite{artifactFramework}
\newlabel{image:beamHardening}{{3a}{6}{Datei:Aufhaertungsartefakt.jpg --- Wikipedia --- 2010 --- zugegriffen am 3. 1. 2018 --- \url {https://de.wikipedia.org/w/index.php?title=Datei:Aufhaertungsartefakt.JPG&oldid=141234609}}{figure.caption.3}{}}
\newlabel{sub@image:beamHardening}{{a}{6}{Datei:Aufhaertungsartefakt.jpg --- Wikipedia --- 2010 --- zugegriffen am 3. 1. 2018 --- \url {https://de.wikipedia.org/w/index.php?title=Datei:Aufhaertungsartefakt.JPG&oldid=141234609}}{figure.caption.3}{}}
\newlabel{image:longBeamHardening}{{3b}{6}{\citeauthor {beamHardening} \cite {beamHardening}}{figure.caption.3}{}}
\newlabel{sub@image:longBeamHardening}{{b}{6}{\citeauthor {beamHardening} \cite {beamHardening}}{figure.caption.3}{}}
\@writefile{lof}{\defcounter {refsection}{0}\relax }\@writefile{lof}{\contentsline {figure}{\numberline {3}{\ignorespaces Aufh\IeC {\"a}rtungsartefakte in der Computertomografie}}{6}{figure.caption.3}}
\@writefile{lof}{\defcounter {refsection}{0}\relax }\@writefile{lof}{\contentsline {subfigure}{\numberline {a}{\ignorespaces Datei:Aufhaertungsartefakt.jpg --- Wikipedia --- 2010 --- zugegriffen am 3. 1. 2018 --- \url  {https://de.wikipedia.org/w/index.php?title=Datei:Aufhaertungsartefakt.JPG&oldid=141234609}}}{6}{figure.caption.3}}
\@writefile{lof}{\defcounter {refsection}{0}\relax }\@writefile{lof}{\contentsline {subfigure}{\numberline {b}{\ignorespaces \citeauthor {beamHardening} \cite {beamHardening}}}{6}{figure.caption.3}}
\newlabel{image:oberk\IeC {\"o}rper}{{3}{6}{Aufhärtungsartefakte in der Computertomografie}{figure.caption.3}{}}
\@writefile{toc}{\defcounter {refsection}{0}\relax }\@writefile{toc}{\contentsline {subsection}{\numberline {2.2}Volume Rendering}{8}{subsection.2.2}}
\newlabel{sec:volumeRendering}{{2.2}{8}{Volume Rendering}{subsection.2.2}{}}
\newlabel{image:skalarfeld}{{4a}{8}{Wikimedia Commons contributors -- File:Voxelgitter.png --- Wikimedia Commons, the free media repository --- 2015 --- zugegriffen am 2. 1. 2018 --- \url {https://commons.wikimedia.org/w/index.php?title=File:Voxelgitter.png&oldid=159805689}}{figure.caption.4}{}}
\newlabel{sub@image:skalarfeld}{{a}{8}{Wikimedia Commons contributors -- File:Voxelgitter.png --- Wikimedia Commons, the free media repository --- 2015 --- zugegriffen am 2. 1. 2018 --- \url {https://commons.wikimedia.org/w/index.php?title=File:Voxelgitter.png&oldid=159805689}}{figure.caption.4}{}}
\newlabel{image:raycastingSchema}{{4b}{8}{Raycasting Schema}{figure.caption.4}{}}
\newlabel{sub@image:raycastingSchema}{{b}{8}{Raycasting Schema}{figure.caption.4}{}}
\@writefile{lof}{\defcounter {refsection}{0}\relax }\@writefile{lof}{\contentsline {figure}{\numberline {4}{\ignorespaces Strukturiertes Skalarfeld und Raycasting Schema}}{8}{figure.caption.4}}
\@writefile{lof}{\defcounter {refsection}{0}\relax }\@writefile{lof}{\contentsline {subfigure}{\numberline {a}{\ignorespaces Wikimedia Commons contributors -- File:Voxelgitter.png --- Wikimedia Commons, the free media repository --- 2015 --- zugegriffen am 2. 1. 2018 --- \url  {https://commons.wikimedia.org/w/index.php?title=File:Voxelgitter.png&oldid=159805689}}}{8}{figure.caption.4}}
\@writefile{lof}{\defcounter {refsection}{0}\relax }\@writefile{lof}{\contentsline {subfigure}{\numberline {b}{\ignorespaces Raycasting Schema}}{8}{figure.caption.4}}
\newlabel{image:raycasting}{{4}{8}{Strukturiertes Skalarfeld und Raycasting Schema}{figure.caption.4}{}}
\@writefile{lof}{\defcounter {refsection}{0}\relax }\@writefile{lof}{\contentsline {figure}{\numberline {5}{\ignorespaces Drehleier beim Erstellen der Transferfunktion}}{9}{figure.caption.5}}
\newlabel{image:transferfunktion}{{5}{9}{Drehleier beim Erstellen der Transferfunktion}{figure.caption.5}{}}
\@writefile{toc}{\defcounter {refsection}{0}\relax }\@writefile{toc}{\contentsline {subsection}{\numberline {2.3}Virtual Reality}{10}{subsection.2.3}}
\@writefile{toc}{\defcounter {refsection}{0}\relax }\@writefile{toc}{\contentsline {subsection}{\numberline {2.4}Augmented Reality}{11}{subsection.2.4}}
\@writefile{lof}{\defcounter {refsection}{0}\relax }\@writefile{lof}{\contentsline {figure}{\numberline {6}{\ignorespaces PeakFinder -- PeakFinder-Screenshot-3.jpg --- zugegriffen am 31. 1. 2018 --- \url  {https://www.peakfinder.org/javax.faces.resource/app/PeakFinder-Screenshot-3.jpg.xhtml?ln=images}}}{11}{figure.caption.6}}
\newlabel{image:peakFinder}{{6}{11}{PeakFinder -- PeakFinder-Screenshot-3.jpg --- zugegriffen am 31. 1. 2018 --- \url {https://www.peakfinder.org/javax.faces.resource/app/PeakFinder-Screenshot-3.jpg.xhtml?ln=images}}{figure.caption.6}{}}
\@writefile{toc}{\defcounter {refsection}{0}\relax }\@writefile{toc}{\contentsline {section}{\numberline {3}Verwandte Arbeiten}{13}{section.3}}
\@writefile{toc}{\defcounter {refsection}{0}\relax }\@writefile{toc}{\contentsline {subsection}{\numberline {3.1}Visualisierung von CT-Daten}{13}{subsection.3.1}}
\@writefile{lof}{\defcounter {refsection}{0}\relax }\@writefile{lof}{\contentsline {figure}{\numberline {7}{\ignorespaces MeVisLab -- zugegriffen am 31. 1. 2018 --- \url  {https://mevislabdownloads.mevis.de/IEEE_Pulse/images/MeVisLab.png}}}{14}{figure.caption.7}}
\newlabel{image:mevisLab}{{7}{14}{MeVisLab -- zugegriffen am 31. 1. 2018 --- \url {https://mevislabdownloads.mevis.de/IEEE_Pulse/images/MeVisLab.png}}{figure.caption.7}{}}
\abx@aux@cite{cinRendering}
\abx@aux@cite{ctRendering}
\abx@aux@cite{marchingCubes}
\abx@aux@cite{authentication}
\abx@aux@cite{artInfluence}
\@writefile{lof}{\defcounter {refsection}{0}\relax }\@writefile{lof}{\contentsline {figure}{\numberline {8}{\ignorespaces Erweitertes Volume Renderi \citeauthor {ctRendering} \cite {ctRendering}}}{15}{figure.caption.8}}
\newlabel{image:cinRendering}{{8}{15}{Erweitertes Volume Renderi \citeauthor {ctRendering} \cite {ctRendering}}{figure.caption.8}{}}
\@writefile{toc}{\defcounter {refsection}{0}\relax }\@writefile{toc}{\contentsline {subsection}{\numberline {3.2}Computergrafik im Museumsumfeld}{16}{subsection.3.2}}
\@writefile{lof}{\defcounter {refsection}{0}\relax }\@writefile{lof}{\contentsline {figure}{\numberline {9}{\ignorespaces Neue Erkenntnisse zu Bild- und K\IeC {\"u}nstler\IeC {\"a}hnlichkeiten \citeauthor {artInfluence} \cite {artInfluence}}}{16}{figure.caption.9}}
\newlabel{image:artInfluence}{{9}{16}{Neue Erkenntnisse zu Bild- und Künstlerähnlichkeiten \citeauthor {artInfluence} \cite {artInfluence}}{figure.caption.9}{}}
\abx@aux@cite{x3dom}
\abx@aux@cite{3dscan}
\abx@aux@cite{3dDigitizing}
\abx@aux@cite{arco}
\@writefile{lof}{\defcounter {refsection}{0}\relax }\@writefile{lof}{\contentsline {figure}{\numberline {10}{\ignorespaces Nachbau vom Dom in Siena mit X3DOM}}{17}{figure.caption.10}}
\newlabel{image:x3dom}{{10}{17}{Nachbau vom Dom in Siena mit X3DOM}{figure.caption.10}{}}
\abx@aux@cite{hiro}
\newlabel{image:arco}{{11a}{18}{Virtuelle Ausstellung mit ARCO \citeauthor {arco} \cite {arco}}{figure.caption.11}{}}
\newlabel{sub@image:arco}{{a}{18}{Virtuelle Ausstellung mit ARCO \citeauthor {arco} \cite {arco}}{figure.caption.11}{}}
\newlabel{image:hiro}{{11b}{18}{Virtuelle Vervollständigung \citeauthor {hiro} \cite {hiro}}{figure.caption.11}{}}
\newlabel{sub@image:hiro}{{b}{18}{Virtuelle Vervollständigung \citeauthor {hiro} \cite {hiro}}{figure.caption.11}{}}
\@writefile{lof}{\defcounter {refsection}{0}\relax }\@writefile{lof}{\contentsline {figure}{\numberline {11}{\ignorespaces ARCO und die virtuelle Vervollst\IeC {\"a}ndigung in AR}}{18}{figure.caption.11}}
\@writefile{lof}{\defcounter {refsection}{0}\relax }\@writefile{lof}{\contentsline {subfigure}{\numberline {a}{\ignorespaces Virtuelle Ausstellung mit ARCO \citeauthor {arco} \cite {arco}}}{18}{figure.caption.11}}
\@writefile{lof}{\defcounter {refsection}{0}\relax }\@writefile{lof}{\contentsline {subfigure}{\numberline {b}{\ignorespaces Virtuelle Vervollst\IeC {\"a}ndigung \citeauthor {hiro} \cite {hiro}}}{18}{figure.caption.11}}
\newlabel{fig:arMuseum}{{11}{18}{ARCO und die virtuelle Vervollständigung in AR}{figure.caption.11}{}}
\@writefile{toc}{\defcounter {refsection}{0}\relax }\@writefile{toc}{\contentsline {section}{\numberline {4}Digitale Musikinstrumente}{19}{section.4}}
\@writefile{toc}{\defcounter {refsection}{0}\relax }\@writefile{toc}{\contentsline {subsection}{\numberline {4.1}Projekt MUSICES}{19}{subsection.4.1}}
\@writefile{toc}{\defcounter {refsection}{0}\relax }\@writefile{toc}{\contentsline {subsection}{\numberline {4.2}Die Instrumente}{20}{subsection.4.2}}
\newlabel{fig:tastenzister}{{12a}{20}{Tastenzister\relax }{figure.caption.12}{}}
\newlabel{sub@fig:tastenzister}{{a}{20}{Tastenzister\relax }{figure.caption.12}{}}
\newlabel{fig:drehleier}{{12b}{20}{Drehleier\relax }{figure.caption.12}{}}
\newlabel{sub@fig:drehleier}{{b}{20}{Drehleier\relax }{figure.caption.12}{}}
\newlabel{fig:buechsentrompete}{{12c}{20}{Büchsentrompete -- Fotograf: Janos Stekovics}{figure.caption.12}{}}
\newlabel{sub@fig:buechsentrompete}{{c}{20}{Büchsentrompete -- Fotograf: Janos Stekovics}{figure.caption.12}{}}
\newlabel{fig:damaru}{{12d}{20}{Damaru -- Fotografin: Marion Wenzel}{figure.caption.12}{}}
\newlabel{sub@fig:damaru}{{d}{20}{Damaru -- Fotografin: Marion Wenzel}{figure.caption.12}{}}
\newlabel{fig:handharmonika}{{12e}{20}{Handharmonika\relax }{figure.caption.12}{}}
\newlabel{sub@fig:handharmonika}{{e}{20}{Handharmonika\relax }{figure.caption.12}{}}
\newlabel{fig:zither}{{12f}{20}{Zither\relax }{figure.caption.12}{}}
\newlabel{sub@fig:zither}{{f}{20}{Zither\relax }{figure.caption.12}{}}
\@writefile{lof}{\defcounter {refsection}{0}\relax }\@writefile{lof}{\contentsline {figure}{\numberline {12}{\ignorespaces Sechs gescannte Instrumente aus dem Musikinstrumentenmuseum der Universit\IeC {\"a}t Leipzig}}{20}{figure.caption.12}}
\@writefile{lof}{\defcounter {refsection}{0}\relax }\@writefile{lof}{\contentsline {subfigure}{\numberline {a}{\ignorespaces Tastenzister\relax }}{20}{figure.caption.12}}
\@writefile{lof}{\defcounter {refsection}{0}\relax }\@writefile{lof}{\contentsline {subfigure}{\numberline {b}{\ignorespaces Drehleier\relax }}{20}{figure.caption.12}}
\@writefile{lof}{\defcounter {refsection}{0}\relax }\@writefile{lof}{\contentsline {subfigure}{\numberline {c}{\ignorespaces B\IeC {\"u}chsentrompete -- Fotograf: Janos Stekovics}}{20}{figure.caption.12}}
\@writefile{lof}{\defcounter {refsection}{0}\relax }\@writefile{lof}{\contentsline {subfigure}{\numberline {d}{\ignorespaces Damaru -- Fotografin: Marion Wenzel}}{20}{figure.caption.12}}
\@writefile{lof}{\defcounter {refsection}{0}\relax }\@writefile{lof}{\contentsline {subfigure}{\numberline {e}{\ignorespaces Handharmonika\relax }}{20}{figure.caption.12}}
\@writefile{lof}{\defcounter {refsection}{0}\relax }\@writefile{lof}{\contentsline {subfigure}{\numberline {f}{\ignorespaces Zither\relax }}{20}{figure.caption.12}}
\newlabel{fig:instrumente}{{12}{20}{Sechs gescannte Instrumente aus dem Musikinstrumentenmuseum der Universität Leipzig}{figure.caption.12}{}}
\@writefile{toc}{\defcounter {refsection}{0}\relax }\@writefile{toc}{\contentsline {subsubsection}{\numberline {4.2.1}Tastenzister}{21}{subsubsection.4.2.1}}
\@writefile{toc}{\defcounter {refsection}{0}\relax }\@writefile{toc}{\contentsline {subsubsection}{\numberline {4.2.2}Drehleier}{21}{subsubsection.4.2.2}}
\@writefile{toc}{\defcounter {refsection}{0}\relax }\@writefile{toc}{\contentsline {subsubsection}{\numberline {4.2.3}B\IeC {\"u}chsentrompete}{21}{subsubsection.4.2.3}}
\@writefile{toc}{\defcounter {refsection}{0}\relax }\@writefile{toc}{\contentsline {subsubsection}{\numberline {4.2.4}Damaru}{22}{subsubsection.4.2.4}}
\@writefile{toc}{\defcounter {refsection}{0}\relax }\@writefile{toc}{\contentsline {subsubsection}{\numberline {4.2.5}Handharmonika}{22}{subsubsection.4.2.5}}
\@writefile{toc}{\defcounter {refsection}{0}\relax }\@writefile{toc}{\contentsline {subsubsection}{\numberline {4.2.6}Zither}{23}{subsubsection.4.2.6}}
\@writefile{toc}{\defcounter {refsection}{0}\relax }\@writefile{toc}{\contentsline {section}{\numberline {5}Datenverarbeitung und -analyse}{24}{section.5}}
\@writefile{toc}{\defcounter {refsection}{0}\relax }\@writefile{toc}{\contentsline {subsection}{\numberline {5.1}Datenverarbeitung}{24}{subsection.5.1}}
\newlabel{sec:Datenverarbeitung}{{5.1}{24}{Datenverarbeitung}{subsection.5.1}{}}
\@writefile{lot}{\defcounter {refsection}{0}\relax }\@writefile{lot}{\contentsline {table}{\numberline {1}{\ignorespaces Informationen zum Speicherverbrauch der Datens\IeC {\"a}tze der einzelnen Instrumente\relax }}{24}{table.caption.13}}
\newlabel{table:dateien}{{1}{24}{Informationen zum Speicherverbrauch der Datensätze der einzelnen Instrumente\relax }{table.caption.13}{}}
\@writefile{lof}{\defcounter {refsection}{0}\relax }\@writefile{lof}{\contentsline {figure}{\numberline {13}{\ignorespaces Schematische Darstellung der Zusammenfassung eines Skalarfeldes}}{25}{figure.caption.14}}
\newlabel{image:grid}{{13}{25}{Schematische Darstellung der Zusammenfassung eines Skalarfeldes}{figure.caption.14}{}}
\@writefile{lof}{\defcounter {refsection}{0}\relax }\@writefile{lof}{\contentsline {figure}{\numberline {14}{\ignorespaces Vergleich des Originals und der Komprimierung eines Schichtbildes der Handharmonika.}}{26}{figure.caption.15}}
\newlabel{image:ctVergleich}{{14}{26}{Vergleich des Originals und der Komprimierung eines Schichtbildes der Handharmonika}{figure.caption.15}{}}
\@writefile{toc}{\defcounter {refsection}{0}\relax }\@writefile{toc}{\contentsline {subsection}{\numberline {5.2}Datenanalyse}{27}{subsection.5.2}}
\@writefile{toc}{\defcounter {refsection}{0}\relax }\@writefile{toc}{\contentsline {subsubsection}{\numberline {5.2.1}Histogramme}{27}{subsubsection.5.2.1}}
\newlabel{fig:tastenzisterHisto}{{15a}{28}{Tastenzister\relax }{figure.caption.16}{}}
\newlabel{sub@fig:tastenzisterHisto}{{a}{28}{Tastenzister\relax }{figure.caption.16}{}}
\newlabel{fig:drehleierHisto}{{15b}{28}{Drehleier\relax }{figure.caption.16}{}}
\newlabel{sub@fig:drehleierHisto}{{b}{28}{Drehleier\relax }{figure.caption.16}{}}
\newlabel{fig:buechsentrompeteHisto}{{15c}{28}{Büchsentrompete\relax }{figure.caption.16}{}}
\newlabel{sub@fig:buechsentrompeteHisto}{{c}{28}{Büchsentrompete\relax }{figure.caption.16}{}}
\newlabel{fig:damaruHisto}{{15d}{28}{Damaru\relax }{figure.caption.16}{}}
\newlabel{sub@fig:damaruHisto}{{d}{28}{Damaru\relax }{figure.caption.16}{}}
\newlabel{fig:handharmonikaHisto}{{15e}{28}{Handharmonika\relax }{figure.caption.16}{}}
\newlabel{sub@fig:handharmonikaHisto}{{e}{28}{Handharmonika\relax }{figure.caption.16}{}}
\newlabel{fig:zitherHisto}{{15f}{28}{Zither\relax }{figure.caption.16}{}}
\newlabel{sub@fig:zitherHisto}{{f}{28}{Zither\relax }{figure.caption.16}{}}
\@writefile{lof}{\defcounter {refsection}{0}\relax }\@writefile{lof}{\contentsline {figure}{\numberline {15}{\ignorespaces Histogramme der sechs gescannten Instrumente}}{28}{figure.caption.16}}
\@writefile{lof}{\defcounter {refsection}{0}\relax }\@writefile{lof}{\contentsline {subfigure}{\numberline {a}{\ignorespaces Tastenzister\relax }}{28}{figure.caption.16}}
\@writefile{lof}{\defcounter {refsection}{0}\relax }\@writefile{lof}{\contentsline {subfigure}{\numberline {b}{\ignorespaces Drehleier\relax }}{28}{figure.caption.16}}
\@writefile{lof}{\defcounter {refsection}{0}\relax }\@writefile{lof}{\contentsline {subfigure}{\numberline {c}{\ignorespaces B\IeC {\"u}chsentrompete\relax }}{28}{figure.caption.16}}
\@writefile{lof}{\defcounter {refsection}{0}\relax }\@writefile{lof}{\contentsline {subfigure}{\numberline {d}{\ignorespaces Damaru\relax }}{28}{figure.caption.16}}
\@writefile{lof}{\defcounter {refsection}{0}\relax }\@writefile{lof}{\contentsline {subfigure}{\numberline {e}{\ignorespaces Handharmonika\relax }}{28}{figure.caption.16}}
\@writefile{lof}{\defcounter {refsection}{0}\relax }\@writefile{lof}{\contentsline {subfigure}{\numberline {f}{\ignorespaces Zither\relax }}{28}{figure.caption.16}}
\newlabel{fig:instrumenteHisto}{{15}{28}{Histogramme der sechs gescannten Instrumente}{figure.caption.16}{}}
\@writefile{toc}{\defcounter {refsection}{0}\relax }\@writefile{toc}{\contentsline {subsubsection}{\numberline {5.2.2}Bildanalyse}{29}{subsubsection.5.2.2}}
\newlabel{sec:bildanalyse}{{5.2.2}{29}{Bildanalyse}{subsubsection.5.2.2}{}}
\newlabel{fig:tastenzisterKorpus}{{16a}{29}{Schnitt durch den Korpus der Tastenzister\relax }{figure.caption.17}{}}
\newlabel{sub@fig:tastenzisterKorpus}{{a}{29}{Schnitt durch den Korpus der Tastenzister\relax }{figure.caption.17}{}}
\newlabel{fig:tastenzisterKopf}{{16b}{29}{Kopf der Tastenzister\relax }{figure.caption.17}{}}
\newlabel{sub@fig:tastenzisterKopf}{{b}{29}{Kopf der Tastenzister\relax }{figure.caption.17}{}}
\@writefile{lof}{\defcounter {refsection}{0}\relax }\@writefile{lof}{\contentsline {figure}{\numberline {16}{\ignorespaces CT-Schichtbilder der Tastenzister}}{29}{figure.caption.17}}
\@writefile{lof}{\defcounter {refsection}{0}\relax }\@writefile{lof}{\contentsline {subfigure}{\numberline {a}{\ignorespaces Schnitt durch den Korpus der Tastenzister\relax }}{29}{figure.caption.17}}
\@writefile{lof}{\defcounter {refsection}{0}\relax }\@writefile{lof}{\contentsline {subfigure}{\numberline {b}{\ignorespaces Kopf der Tastenzister\relax }}{29}{figure.caption.17}}
\newlabel{fig:tastenzisterCT}{{16}{29}{CT-Schichtbilder der Tastenzister}{figure.caption.17}{}}
\newlabel{fig:drehleierWirbel}{{17a}{30}{Wirbel der Drehleier\relax }{figure.caption.18}{}}
\newlabel{sub@fig:drehleierWirbel}{{a}{30}{Wirbel der Drehleier\relax }{figure.caption.18}{}}
\newlabel{fig:drehleierRad}{{17b}{30}{Hölzernes Rad auf der Achse der Drehleier\relax }{figure.caption.18}{}}
\newlabel{sub@fig:drehleierRad}{{b}{30}{Hölzernes Rad auf der Achse der Drehleier\relax }{figure.caption.18}{}}
\@writefile{lof}{\defcounter {refsection}{0}\relax }\@writefile{lof}{\contentsline {figure}{\numberline {17}{\ignorespaces CT-Schnittbilder der Drehleier\relax }}{30}{figure.caption.18}}
\@writefile{lof}{\defcounter {refsection}{0}\relax }\@writefile{lof}{\contentsline {subfigure}{\numberline {a}{\ignorespaces Wirbel der Drehleier\relax }}{30}{figure.caption.18}}
\@writefile{lof}{\defcounter {refsection}{0}\relax }\@writefile{lof}{\contentsline {subfigure}{\numberline {b}{\ignorespaces H\IeC {\"o}lzernes Rad auf der Achse der Drehleier\relax }}{30}{figure.caption.18}}
\newlabel{fig:drehleierCT}{{17}{30}{CT-Schnittbilder der Drehleier\relax }{figure.caption.18}{}}
\newlabel{fig:drehleierAchse}{{18a}{31}{Beginn der Achse der Drehleier\relax }{figure.caption.19}{}}
\newlabel{sub@fig:drehleierAchse}{{a}{31}{Beginn der Achse der Drehleier\relax }{figure.caption.19}{}}
\newlabel{fig:drehleierKurbel}{{18b}{31}{Kurbel der Drehleier\relax }{figure.caption.19}{}}
\newlabel{sub@fig:drehleierKurbel}{{b}{31}{Kurbel der Drehleier\relax }{figure.caption.19}{}}
\@writefile{lof}{\defcounter {refsection}{0}\relax }\@writefile{lof}{\contentsline {figure}{\numberline {18}{\ignorespaces CT-Schnittbilder der Drehleier\relax }}{31}{figure.caption.19}}
\@writefile{lof}{\defcounter {refsection}{0}\relax }\@writefile{lof}{\contentsline {subfigure}{\numberline {a}{\ignorespaces Beginn der Achse der Drehleier\relax }}{31}{figure.caption.19}}
\@writefile{lof}{\defcounter {refsection}{0}\relax }\@writefile{lof}{\contentsline {subfigure}{\numberline {b}{\ignorespaces Kurbel der Drehleier\relax }}{31}{figure.caption.19}}
\newlabel{fig:drehleierCT}{{18}{31}{CT-Schnittbilder der Drehleier\relax }{figure.caption.19}{}}
\newlabel{fig:trompeteRohr}{{19a}{32}{Das gewickelte Rohr der Büchsentrompete\relax }{figure.caption.20}{}}
\newlabel{sub@fig:trompeteRohr}{{a}{32}{Das gewickelte Rohr der Büchsentrompete\relax }{figure.caption.20}{}}
\newlabel{fig:trompeteR\IeC {\"o}ntgen}{{19b}{32}{Röntgen-Aufnahme der Büchsentrompete\relax }{figure.caption.20}{}}
\newlabel{sub@fig:trompeteR\IeC {\"o}ntgen}{{b}{32}{Röntgen-Aufnahme der Büchsentrompete\relax }{figure.caption.20}{}}
\@writefile{lof}{\defcounter {refsection}{0}\relax }\@writefile{lof}{\contentsline {figure}{\numberline {19}{\ignorespaces Die B\IeC {\"u}chsentrompete\relax }}{32}{figure.caption.20}}
\@writefile{lof}{\defcounter {refsection}{0}\relax }\@writefile{lof}{\contentsline {subfigure}{\numberline {a}{\ignorespaces Das gewickelte Rohr der B\IeC {\"u}chsentrompete\relax }}{32}{figure.caption.20}}
\@writefile{lof}{\defcounter {refsection}{0}\relax }\@writefile{lof}{\contentsline {subfigure}{\numberline {b}{\ignorespaces R\IeC {\"o}ntgen-Aufnahme der B\IeC {\"u}chsentrompete\relax }}{32}{figure.caption.20}}
\newlabel{fig:instrumenteHisto}{{19}{32}{Die Büchsentrompete\relax }{figure.caption.20}{}}
\newlabel{fig:damaruDCM}{{20a}{33}{Damaru\relax }{figure.caption.21}{}}
\newlabel{sub@fig:damaruDCM}{{a}{33}{Damaru\relax }{figure.caption.21}{}}
\newlabel{fig:zitherDcm}{{20b}{33}{Zither\relax }{figure.caption.21}{}}
\newlabel{sub@fig:zitherDcm}{{b}{33}{Zither\relax }{figure.caption.21}{}}
\@writefile{lof}{\defcounter {refsection}{0}\relax }\@writefile{lof}{\contentsline {figure}{\numberline {20}{\ignorespaces Damaru und Zither\relax }}{33}{figure.caption.21}}
\@writefile{lof}{\defcounter {refsection}{0}\relax }\@writefile{lof}{\contentsline {subfigure}{\numberline {a}{\ignorespaces Damaru\relax }}{33}{figure.caption.21}}
\@writefile{lof}{\defcounter {refsection}{0}\relax }\@writefile{lof}{\contentsline {subfigure}{\numberline {b}{\ignorespaces Zither\relax }}{33}{figure.caption.21}}
\newlabel{fig:instrumenteHisto}{{20}{33}{Damaru und Zither\relax }{figure.caption.21}{}}
\newlabel{fig:handharmonikaEbenen}{{21a}{34}{Verschiedene Ebenen der Handharmonika\relax }{figure.caption.22}{}}
\newlabel{sub@fig:handharmonikaEbenen}{{a}{34}{Verschiedene Ebenen der Handharmonika\relax }{figure.caption.22}{}}
\newlabel{fig:handharmonikaArtefakte}{{21b}{34}{Etliche Aufhärtungsartefakte\relax }{figure.caption.22}{}}
\newlabel{sub@fig:handharmonikaArtefakte}{{b}{34}{Etliche Aufhärtungsartefakte\relax }{figure.caption.22}{}}
\@writefile{lof}{\defcounter {refsection}{0}\relax }\@writefile{lof}{\contentsline {figure}{\numberline {21}{\ignorespaces Die Handharmonika\relax }}{34}{figure.caption.22}}
\@writefile{lof}{\defcounter {refsection}{0}\relax }\@writefile{lof}{\contentsline {subfigure}{\numberline {a}{\ignorespaces Verschiedene Ebenen der Handharmonika\relax }}{34}{figure.caption.22}}
\@writefile{lof}{\defcounter {refsection}{0}\relax }\@writefile{lof}{\contentsline {subfigure}{\numberline {b}{\ignorespaces Etliche Aufh\IeC {\"a}rtungsartefakte\relax }}{34}{figure.caption.22}}
\newlabel{fig:handharmonikaCT}{{21}{34}{Die Handharmonika\relax }{figure.caption.22}{}}
\abx@aux@cite{carr2003computing}
\abx@aux@cite{contourImage}
\abx@aux@cite{weber}
\@writefile{toc}{\defcounter {refsection}{0}\relax }\@writefile{toc}{\contentsline {subsubsection}{\numberline {5.2.3}Konturbaumanalyse}{35}{subsubsection.5.2.3}}
\newlabel{sec:konturbaum}{{5.2.3}{35}{Konturbaumanalyse}{subsubsection.5.2.3}{}}
\@writefile{lof}{\defcounter {refsection}{0}\relax }\@writefile{lof}{\contentsline {figure}{\numberline {22}{\ignorespaces Einfacher Konturbaum}}{35}{figure.caption.23}}
\newlabel{image:contourImage}{{22}{35}{Einfacher Konturbaum}{figure.caption.23}{}}
\@writefile{lof}{\defcounter {refsection}{0}\relax }\@writefile{lof}{\contentsline {figure}{\numberline {23}{\ignorespaces Konturbaum-Ausschnitt und Isofl\IeC {\"a}chen-Darstellung der Wirbel der Drehleier in FAnToM}}{36}{figure.caption.24}}
\newlabel{image:fantomKonturWirbel}{{23}{36}{Konturbaum-Ausschnitt und Isoflächen-Darstellung der Wirbel der Drehleier in FAnToM}{figure.caption.24}{}}
\@writefile{lof}{\defcounter {refsection}{0}\relax }\@writefile{lof}{\contentsline {figure}{\numberline {24}{\ignorespaces Konturbaum und Isofl\IeC {\"a}chen-Darstellung der Drehleier in FAnToM}}{37}{figure.caption.25}}
\newlabel{image:fantomKonturAlles}{{24}{37}{Konturbaum und Isoflächen-Darstellung der Drehleier in FAnToM}{figure.caption.25}{}}
\@writefile{toc}{\defcounter {refsection}{0}\relax }\@writefile{toc}{\contentsline {section}{\numberline {6}Framework - \IeC {\"U}bersicht}{38}{section.6}}
\@writefile{lof}{\defcounter {refsection}{0}\relax }\@writefile{lof}{\contentsline {figure}{\numberline {25}{\ignorespaces Schematische Darstellung grundlegender Framework-Elemente}}{38}{figure.caption.26}}
\newlabel{image:frameworkSchema}{{25}{38}{Schematische Darstellung grundlegender Framework-Elemente}{figure.caption.26}{}}
\@writefile{toc}{\defcounter {refsection}{0}\relax }\@writefile{toc}{\contentsline {subsection}{\numberline {6.1}Anforderungen an eine digitale Museumsausstellung}{39}{subsection.6.1}}
\@writefile{toc}{\defcounter {refsection}{0}\relax }\@writefile{toc}{\contentsline {subsection}{\numberline {6.2}Renderer}{39}{subsection.6.2}}
\@writefile{toc}{\defcounter {refsection}{0}\relax }\@writefile{toc}{\contentsline {subsection}{\numberline {6.3}Szene}{40}{subsection.6.3}}
\@writefile{toc}{\defcounter {refsection}{0}\relax }\@writefile{toc}{\contentsline {subsection}{\numberline {6.4}Skript}{40}{subsection.6.4}}
\@writefile{toc}{\defcounter {refsection}{0}\relax }\@writefile{toc}{\contentsline {section}{\numberline {7}Framework - Implementierungsdetails}{41}{section.7}}
\@writefile{toc}{\defcounter {refsection}{0}\relax }\@writefile{toc}{\contentsline {subsection}{\numberline {7.1}Rendering}{41}{subsection.7.1}}
\@writefile{toc}{\defcounter {refsection}{0}\relax }\@writefile{toc}{\contentsline {subsection}{\numberline {7.2}Volume Rendering}{41}{subsection.7.2}}
\@writefile{toc}{\defcounter {refsection}{0}\relax }\@writefile{toc}{\contentsline {subsubsection}{\numberline {7.2.1}Implementierung}{41}{subsubsection.7.2.1}}
\abx@aux@cite{ulichney}
\abx@aux@cite{Phong}
\newlabel{image:edges}{{26a}{42}{Ohne Jitter\relax }{figure.caption.27}{}}
\newlabel{sub@image:edges}{{a}{42}{Ohne Jitter\relax }{figure.caption.27}{}}
\newlabel{image:withoutEdges}{{26b}{42}{Mit Jitter\relax }{figure.caption.27}{}}
\newlabel{sub@image:withoutEdges}{{b}{42}{Mit Jitter\relax }{figure.caption.27}{}}
\@writefile{lof}{\defcounter {refsection}{0}\relax }\@writefile{lof}{\contentsline {figure}{\numberline {26}{\ignorespaces Vergleich Volume Rendering mit und ohne Jitter}}{42}{figure.caption.27}}
\@writefile{lof}{\defcounter {refsection}{0}\relax }\@writefile{lof}{\contentsline {subfigure}{\numberline {a}{\ignorespaces Ohne Jitter\relax }}{42}{figure.caption.27}}
\@writefile{lof}{\defcounter {refsection}{0}\relax }\@writefile{lof}{\contentsline {subfigure}{\numberline {b}{\ignorespaces Mit Jitter\relax }}{42}{figure.caption.27}}
\newlabel{image:jitter}{{26}{42}{Vergleich Volume Rendering mit und ohne Jitter}{figure.caption.27}{}}
\@writefile{toc}{\defcounter {refsection}{0}\relax }\@writefile{toc}{\contentsline {subsubsection}{\numberline {7.2.2}Interaktionsm\IeC {\"o}glichkeiten}{43}{subsubsection.7.2.2}}
\@writefile{lof}{\defcounter {refsection}{0}\relax }\@writefile{lof}{\contentsline {figure}{\numberline {27}{\ignorespaces Metallteile der Tastenzister}}{43}{figure.caption.28}}
\newlabel{image:drehleierMetall}{{27}{43}{Metallteile der Tastenzister}{figure.caption.28}{}}
\@writefile{lof}{\defcounter {refsection}{0}\relax }\@writefile{lof}{\contentsline {figure}{\numberline {28}{\ignorespaces L\IeC {\"a}ngsschnitt durch die Drehleier.}}{44}{figure.caption.29}}
\newlabel{image:laengsSchnitt}{{28}{44}{Längsschnitt durch die Drehleier}{figure.caption.29}{}}
\@writefile{lof}{\defcounter {refsection}{0}\relax }\@writefile{lof}{\contentsline {figure}{\numberline {29}{\ignorespaces L\IeC {\"a}ngsschnitt durch die B\IeC {\"u}chsentrompete.}}{44}{figure.caption.30}}
\newlabel{image:laengsSchnittBuechse}{{29}{44}{Längsschnitt durch die Büchsentrompete}{figure.caption.30}{}}
\abx@aux@cite{white2009better}
\@writefile{toc}{\defcounter {refsection}{0}\relax }\@writefile{toc}{\contentsline {subsection}{\numberline {7.3}Definition der Szenen mittels Lua-Skript}{45}{subsection.7.3}}
\newlabel{sec:luaScripting}{{7.3}{45}{Definition der Szenen mittels Lua-Skript}{subsection.7.3}{}}
\abx@aux@cite{szeliski}
\@writefile{toc}{\defcounter {refsection}{0}\relax }\@writefile{toc}{\contentsline {subsection}{\numberline {7.4}Objekte}{46}{subsection.7.4}}
\newlabel{sec:objekte}{{7.4}{46}{Objekte}{subsection.7.4}{}}
\@writefile{toc}{\defcounter {refsection}{0}\relax }\@writefile{toc}{\contentsline {subsubsection}{\numberline {7.4.1}Punkte von Interesse}{46}{subsubsection.7.4.1}}
\newlabel{sec:poi}{{7.4.1}{46}{Punkte von Interesse}{subsubsection.7.4.1}{}}
\@writefile{toc}{\defcounter {refsection}{0}\relax }\@writefile{toc}{\contentsline {subsubsection}{\numberline {7.4.2}Annotationen}{47}{subsubsection.7.4.2}}
\newlabel{sec:labels}{{7.4.2}{47}{Annotationen}{subsubsection.7.4.2}{}}
\@writefile{toc}{\defcounter {refsection}{0}\relax }\@writefile{toc}{\contentsline {subsubsection}{\numberline {7.4.3}Regionen von Interesse}{47}{subsubsection.7.4.3}}
\newlabel{sec:regionenVonInteresse}{{7.4.3}{47}{Regionen von Interesse}{subsubsection.7.4.3}{}}
\abx@aux@cite{gamificationOfLearning}
\abx@aux@cite{learningThroughGames}
\@writefile{toc}{\defcounter {refsection}{0}\relax }\@writefile{toc}{\contentsline {subsection}{\numberline {7.5}Geschwindigkeit}{48}{subsection.7.5}}
\@writefile{lof}{\defcounter {refsection}{0}\relax }\@writefile{lof}{\contentsline {figure}{\numberline {30}{\ignorespaces Volume Rendering der Drehleier}}{49}{figure.caption.31}}
\newlabel{image:drehleierVR}{{30}{49}{Volume Rendering der Drehleier}{figure.caption.31}{}}
\@writefile{lof}{\defcounter {refsection}{0}\relax }\@writefile{lof}{\contentsline {figure}{\numberline {31}{\ignorespaces Volume Rendering der Damaru}}{49}{figure.caption.32}}
\newlabel{image:damaruVR}{{31}{49}{Volume Rendering der Damaru}{figure.caption.32}{}}
\@writefile{toc}{\defcounter {refsection}{0}\relax }\@writefile{toc}{\contentsline {section}{\numberline {8}Anwendungsbeispiel}{50}{section.8}}
\@writefile{toc}{\defcounter {refsection}{0}\relax }\@writefile{toc}{\contentsline {subsection}{\numberline {8.1}Bedienung am Computer}{50}{subsection.8.1}}
\@writefile{toc}{\defcounter {refsection}{0}\relax }\@writefile{toc}{\contentsline {subsubsection}{\numberline {8.1.1}Beispielszene}{50}{subsubsection.8.1.1}}
\@writefile{lof}{\defcounter {refsection}{0}\relax }\@writefile{lof}{\contentsline {figure}{\numberline {32}{\ignorespaces Szenenskript der Handharmonika}}{51}{figure.caption.33}}
\newlabel{image:scriptHandharmonika}{{32}{51}{Szenenskript der Handharmonika}{figure.caption.33}{}}
\@writefile{lof}{\defcounter {refsection}{0}\relax }\@writefile{lof}{\contentsline {figure}{\numberline {33}{\ignorespaces Handharmonika von vorne}}{52}{figure.caption.34}}
\newlabel{image:handharmonikaVonAussen}{{33}{52}{Handharmonika von vorne}{figure.caption.34}{}}
\@writefile{lof}{\defcounter {refsection}{0}\relax }\@writefile{lof}{\contentsline {figure}{\numberline {34}{\ignorespaces Metallene Teile der Handharmonika}}{53}{figure.caption.35}}
\newlabel{image:metallHandharmonika2}{{34}{53}{Metallene Teile der Handharmonika}{figure.caption.35}{}}
\@writefile{toc}{\defcounter {refsection}{0}\relax }\@writefile{toc}{\contentsline {subsection}{\numberline {8.2}Darstellung in der erweiterten Realit\IeC {\"a}t}{53}{subsection.8.2}}
\@writefile{toc}{\defcounter {refsection}{0}\relax }\@writefile{toc}{\contentsline {subsubsection}{\numberline {8.2.1}Beispielszene}{54}{subsubsection.8.2.1}}
\@writefile{lof}{\defcounter {refsection}{0}\relax }\@writefile{lof}{\contentsline {figure}{\numberline {35}{\ignorespaces Szenenskript der Drehleier}}{54}{figure.caption.36}}
\newlabel{image:scriptDrehleier}{{35}{54}{Szenenskript der Drehleier}{figure.caption.36}{}}
\@writefile{lof}{\defcounter {refsection}{0}\relax }\@writefile{lof}{\contentsline {figure}{\numberline {36}{\ignorespaces Drehleier in AR auf Tablet}}{55}{figure.caption.37}}
\newlabel{image:arDrehleier}{{36}{55}{Drehleier in AR auf Tablet}{figure.caption.37}{}}
\@writefile{lof}{\defcounter {refsection}{0}\relax }\@writefile{lof}{\contentsline {figure}{\numberline {37}{\ignorespaces Detailansicht vom Inneren der Drehleier in AR auf Tablet}}{56}{figure.caption.38}}
\newlabel{image:arDetailDrehleier}{{37}{56}{Detailansicht vom Inneren der Drehleier in AR auf Tablet}{figure.caption.38}{}}
\@writefile{toc}{\defcounter {refsection}{0}\relax }\@writefile{toc}{\contentsline {section}{\numberline {9}Offene Probleme und zuk\IeC {\"u}nftige Arbeit}{57}{section.9}}
\@writefile{toc}{\defcounter {refsection}{0}\relax }\@writefile{toc}{\contentsline {subsection}{\numberline {9.1}Datenanalyse}{57}{subsection.9.1}}
\@writefile{toc}{\defcounter {refsection}{0}\relax }\@writefile{toc}{\contentsline {subsection}{\numberline {9.2}Datenverarbeitung}{57}{subsection.9.2}}
\abx@aux@cite{mip}
\@writefile{toc}{\defcounter {refsection}{0}\relax }\@writefile{toc}{\contentsline {subsection}{\numberline {9.3}Darstellung}{58}{subsection.9.3}}
\@writefile{lof}{\defcounter {refsection}{0}\relax }\@writefile{lof}{\contentsline {figure}{\numberline {38}{\ignorespaces MUSICES in VR}}{58}{figure.caption.39}}
\newlabel{image:jakobInVR}{{38}{58}{MUSICES in VR}{figure.caption.39}{}}
\@writefile{toc}{\defcounter {refsection}{0}\relax }\@writefile{toc}{\contentsline {section}{\numberline {10}Zusammenfassung}{60}{section.10}}
\@writefile{toc}{\defcounter {refsection}{0}\relax }\@writefile{toc}{\contentsline {section}{\numberline {11}Danksagung}{61}{section.11}}
\@writefile{toc}{\defcounter {refsection}{0}\relax }\@writefile{toc}{\contentsline {section}{\numberline {12}Literaturverzeichnis}{I}{section.12}}
\@writefile{toc}{\defcounter {refsection}{0}\relax }\@writefile{toc}{\contentsline {section}{\numberline {13}Abbildungsverzeichnis}{III}{section.13}}
\@writefile{toc}{\defcounter {refsection}{0}\relax }\@writefile{toc}{\contentsline {section}{\numberline {14}Erkl\IeC {\"a}rung}{VI}{section.14}}
\newlabel{LastBibPage}{{14}{VI}{Erklärung}{section.14}{}}
