\boolfalse {citerequest}\boolfalse {citetracker}\boolfalse {pagetracker}\boolfalse {backtracker}\relax 
\defcounter {refsection}{0}\relax 
\select@language {ngerman}
\defcounter {refsection}{0}\relax 
\contentsline {figure}{\numberline {1}{\ignorespaces Menschliche Oberk\IeC {\"o}rper in der R\IeC {\"o}ntgentomografie (a) und der Computertomografie (b)}}{3}{figure.caption.1}
\defcounter {refsection}{0}\relax 
\contentsline {subfigure}{\numberline {a}{\ignorespaces Wikimedia Commons contributors -- Datei:Normal posteroanterior (PA) chest radiograph (X-ray).jpg --- Wikimedia Commons, the free media repository --- 2017 --- zugegriffen am 3. 1. 2018 --- \url {https://commons.wikimedia.org/w/index.php?title=File:Normal_posteroanterior_(PA)_chest_radiograph_(X-ray).jpg&oldid=255604419}}}{3}{figure.caption.1}
\defcounter {refsection}{0}\relax 
\contentsline {subfigure}{\numberline {b}{\ignorespaces Wikimedia Commons contributors -- Datei:Subcutaneous emphysema chest.jpg --- Wikimedia Commons, the free media repository --- 2017 --- zugegriffen am 3. 1. 2018 --- \url {https://commons.wikimedia.org/w/index.php?title=File:Subcutaneous_emphysema_chest.jpg&oldid=244474764}}}{3}{figure.caption.1}
\defcounter {refsection}{0}\relax 
\contentsline {figure}{\numberline {2}{\ignorespaces Schematische Darstellung eines industriellen CTs}}{4}{figure.caption.2}
\defcounter {refsection}{0}\relax 
\contentsline {figure}{\numberline {3}{\ignorespaces Aufh\IeC {\"a}rtungsartefakte in der Computertomografie}}{6}{figure.caption.3}
\defcounter {refsection}{0}\relax 
\contentsline {subfigure}{\numberline {a}{\ignorespaces Datei:Aufhaertungsartefakt.jpg --- Wikipedia --- 2010 --- zugegriffen am 3. 1. 2018 --- \url {https://de.wikipedia.org/w/index.php?title=Datei:Aufhaertungsartefakt.JPG&oldid=141234609}}}{6}{figure.caption.3}
\defcounter {refsection}{0}\relax 
\contentsline {subfigure}{\numberline {b}{\ignorespaces \citeauthor {beamHardening} \cite {beamHardening}}}{6}{figure.caption.3}
\defcounter {refsection}{0}\relax 
\contentsline {figure}{\numberline {4}{\ignorespaces Strukturiertes Skalarfeld und Raycasting Schema}}{8}{figure.caption.4}
\defcounter {refsection}{0}\relax 
\contentsline {subfigure}{\numberline {a}{\ignorespaces Wikimedia Commons contributors -- File:Voxelgitter.png --- Wikimedia Commons, the free media repository --- 2015 --- zugegriffen am 2. 1. 2018 --- \url {https://commons.wikimedia.org/w/index.php?title=File:Voxelgitter.png&oldid=159805689}}}{8}{figure.caption.4}
\defcounter {refsection}{0}\relax 
\contentsline {subfigure}{\numberline {b}{\ignorespaces Raycasting Schema}}{8}{figure.caption.4}
\defcounter {refsection}{0}\relax 
\contentsline {figure}{\numberline {5}{\ignorespaces Drehleier beim Erstellen der Transferfunktion}}{9}{figure.caption.5}
\defcounter {refsection}{0}\relax 
\contentsline {figure}{\numberline {6}{\ignorespaces PeakFinder -- PeakFinder-Screenshot-3.jpg --- zugegriffen am 31. 1. 2018 --- \url {https://www.peakfinder.org/javax.faces.resource/app/PeakFinder-Screenshot-3.jpg.xhtml?ln=images}}}{11}{figure.caption.6}
\defcounter {refsection}{0}\relax 
\contentsline {figure}{\numberline {7}{\ignorespaces MeVisLab -- zugegriffen am 31. 1. 2018 --- \url {https://mevislabdownloads.mevis.de/IEEE_Pulse/images/MeVisLab.png}}}{14}{figure.caption.7}
\defcounter {refsection}{0}\relax 
\contentsline {figure}{\numberline {8}{\ignorespaces Erweitertes Volume Renderi \citeauthor {ctRendering} \cite {ctRendering}}}{15}{figure.caption.8}
\defcounter {refsection}{0}\relax 
\contentsline {figure}{\numberline {9}{\ignorespaces Neue Erkenntnisse zu Bild- und K\IeC {\"u}nstler\IeC {\"a}hnlichkeiten \citeauthor {artInfluence} \cite {artInfluence}}}{16}{figure.caption.9}
\defcounter {refsection}{0}\relax 
\contentsline {figure}{\numberline {10}{\ignorespaces Nachbau vom Dom in Siena mit X3DOM}}{17}{figure.caption.10}
\defcounter {refsection}{0}\relax 
\contentsline {figure}{\numberline {11}{\ignorespaces ARCO und die virtuelle Vervollst\IeC {\"a}ndigung in AR}}{18}{figure.caption.11}
\defcounter {refsection}{0}\relax 
\contentsline {subfigure}{\numberline {a}{\ignorespaces Virtuelle Ausstellung mit ARCO \citeauthor {arco} \cite {arco}}}{18}{figure.caption.11}
\defcounter {refsection}{0}\relax 
\contentsline {subfigure}{\numberline {b}{\ignorespaces Virtuelle Vervollst\IeC {\"a}ndigung \citeauthor {hiro} \cite {hiro}}}{18}{figure.caption.11}
\defcounter {refsection}{0}\relax 
\contentsline {figure}{\numberline {12}{\ignorespaces Sechs gescannte Instrumente aus dem Musikinstrumentenmuseum der Universit\IeC {\"a}t Leipzig}}{20}{figure.caption.12}
\defcounter {refsection}{0}\relax 
\contentsline {subfigure}{\numberline {a}{\ignorespaces Tastenzister\relax }}{20}{figure.caption.12}
\defcounter {refsection}{0}\relax 
\contentsline {subfigure}{\numberline {b}{\ignorespaces Drehleier\relax }}{20}{figure.caption.12}
\defcounter {refsection}{0}\relax 
\contentsline {subfigure}{\numberline {c}{\ignorespaces B\IeC {\"u}chsentrompete -- Fotograf: Janos Stekovics}}{20}{figure.caption.12}
\defcounter {refsection}{0}\relax 
\contentsline {subfigure}{\numberline {d}{\ignorespaces Damaru -- Fotografin: Marion Wenzel}}{20}{figure.caption.12}
\defcounter {refsection}{0}\relax 
\contentsline {subfigure}{\numberline {e}{\ignorespaces Handharmonika\relax }}{20}{figure.caption.12}
\defcounter {refsection}{0}\relax 
\contentsline {subfigure}{\numberline {f}{\ignorespaces Zither\relax }}{20}{figure.caption.12}
\defcounter {refsection}{0}\relax 
\contentsline {figure}{\numberline {13}{\ignorespaces Schematische Darstellung der Zusammenfassung eines Skalarfeldes}}{25}{figure.caption.14}
\defcounter {refsection}{0}\relax 
\contentsline {figure}{\numberline {14}{\ignorespaces Vergleich des Originals und der Komprimierung eines Schichtbildes der Handharmonika.}}{26}{figure.caption.15}
\defcounter {refsection}{0}\relax 
\contentsline {figure}{\numberline {15}{\ignorespaces Histogramme der sechs gescannten Instrumente}}{28}{figure.caption.16}
\defcounter {refsection}{0}\relax 
\contentsline {subfigure}{\numberline {a}{\ignorespaces Tastenzister\relax }}{28}{figure.caption.16}
\defcounter {refsection}{0}\relax 
\contentsline {subfigure}{\numberline {b}{\ignorespaces Drehleier\relax }}{28}{figure.caption.16}
\defcounter {refsection}{0}\relax 
\contentsline {subfigure}{\numberline {c}{\ignorespaces B\IeC {\"u}chsentrompete\relax }}{28}{figure.caption.16}
\defcounter {refsection}{0}\relax 
\contentsline {subfigure}{\numberline {d}{\ignorespaces Damaru\relax }}{28}{figure.caption.16}
\defcounter {refsection}{0}\relax 
\contentsline {subfigure}{\numberline {e}{\ignorespaces Handharmonika\relax }}{28}{figure.caption.16}
\defcounter {refsection}{0}\relax 
\contentsline {subfigure}{\numberline {f}{\ignorespaces Zither\relax }}{28}{figure.caption.16}
\defcounter {refsection}{0}\relax 
\contentsline {figure}{\numberline {16}{\ignorespaces CT-Schichtbilder der Tastenzister}}{29}{figure.caption.17}
\defcounter {refsection}{0}\relax 
\contentsline {subfigure}{\numberline {a}{\ignorespaces Schnitt durch den Korpus der Tastenzister\relax }}{29}{figure.caption.17}
\defcounter {refsection}{0}\relax 
\contentsline {subfigure}{\numberline {b}{\ignorespaces Kopf der Tastenzister\relax }}{29}{figure.caption.17}
\defcounter {refsection}{0}\relax 
\contentsline {figure}{\numberline {17}{\ignorespaces CT-Schnittbilder der Drehleier\relax }}{30}{figure.caption.18}
\defcounter {refsection}{0}\relax 
\contentsline {subfigure}{\numberline {a}{\ignorespaces Wirbel der Drehleier\relax }}{30}{figure.caption.18}
\defcounter {refsection}{0}\relax 
\contentsline {subfigure}{\numberline {b}{\ignorespaces H\IeC {\"o}lzernes Rad auf der Achse der Drehleier\relax }}{30}{figure.caption.18}
\defcounter {refsection}{0}\relax 
\contentsline {figure}{\numberline {18}{\ignorespaces CT-Schnittbilder der Drehleier\relax }}{31}{figure.caption.19}
\defcounter {refsection}{0}\relax 
\contentsline {subfigure}{\numberline {a}{\ignorespaces Beginn der Achse der Drehleier\relax }}{31}{figure.caption.19}
\defcounter {refsection}{0}\relax 
\contentsline {subfigure}{\numberline {b}{\ignorespaces Kurbel der Drehleier\relax }}{31}{figure.caption.19}
\defcounter {refsection}{0}\relax 
\contentsline {figure}{\numberline {19}{\ignorespaces Die B\IeC {\"u}chsentrompete\relax }}{32}{figure.caption.20}
\defcounter {refsection}{0}\relax 
\contentsline {subfigure}{\numberline {a}{\ignorespaces Das gewickelte Rohr der B\IeC {\"u}chsentrompete\relax }}{32}{figure.caption.20}
\defcounter {refsection}{0}\relax 
\contentsline {subfigure}{\numberline {b}{\ignorespaces R\IeC {\"o}ntgen-Aufnahme der B\IeC {\"u}chsentrompete\relax }}{32}{figure.caption.20}
\defcounter {refsection}{0}\relax 
\contentsline {figure}{\numberline {20}{\ignorespaces Damaru und Zither\relax }}{33}{figure.caption.21}
\defcounter {refsection}{0}\relax 
\contentsline {subfigure}{\numberline {a}{\ignorespaces Damaru\relax }}{33}{figure.caption.21}
\defcounter {refsection}{0}\relax 
\contentsline {subfigure}{\numberline {b}{\ignorespaces Zither\relax }}{33}{figure.caption.21}
\defcounter {refsection}{0}\relax 
\contentsline {figure}{\numberline {21}{\ignorespaces Die Handharmonika\relax }}{34}{figure.caption.22}
\defcounter {refsection}{0}\relax 
\contentsline {subfigure}{\numberline {a}{\ignorespaces Verschiedene Ebenen der Handharmonika\relax }}{34}{figure.caption.22}
\defcounter {refsection}{0}\relax 
\contentsline {subfigure}{\numberline {b}{\ignorespaces Etliche Aufh\IeC {\"a}rtungsartefakte\relax }}{34}{figure.caption.22}
\defcounter {refsection}{0}\relax 
\contentsline {figure}{\numberline {22}{\ignorespaces Einfacher Konturbaum}}{35}{figure.caption.23}
\defcounter {refsection}{0}\relax 
\contentsline {figure}{\numberline {23}{\ignorespaces Konturbaum-Ausschnitt und Isofl\IeC {\"a}chen-Darstellung der Wirbel der Drehleier in FAnToM}}{36}{figure.caption.24}
\defcounter {refsection}{0}\relax 
\contentsline {figure}{\numberline {24}{\ignorespaces Konturbaum und Isofl\IeC {\"a}chen-Darstellung der Drehleier in FAnToM}}{37}{figure.caption.25}
\defcounter {refsection}{0}\relax 
\contentsline {figure}{\numberline {25}{\ignorespaces Schematische Darstellung grundlegender Framework-Elemente}}{38}{figure.caption.26}
\defcounter {refsection}{0}\relax 
\contentsline {figure}{\numberline {26}{\ignorespaces Vergleich Volume Rendering mit und ohne Jitter}}{42}{figure.caption.27}
\defcounter {refsection}{0}\relax 
\contentsline {subfigure}{\numberline {a}{\ignorespaces Ohne Jitter\relax }}{42}{figure.caption.27}
\defcounter {refsection}{0}\relax 
\contentsline {subfigure}{\numberline {b}{\ignorespaces Mit Jitter\relax }}{42}{figure.caption.27}
\defcounter {refsection}{0}\relax 
\contentsline {figure}{\numberline {27}{\ignorespaces Metallteile der Tastenzister}}{43}{figure.caption.28}
\defcounter {refsection}{0}\relax 
\contentsline {figure}{\numberline {28}{\ignorespaces L\IeC {\"a}ngsschnitt durch die Drehleier.}}{44}{figure.caption.29}
\defcounter {refsection}{0}\relax 
\contentsline {figure}{\numberline {29}{\ignorespaces L\IeC {\"a}ngsschnitt durch die B\IeC {\"u}chsentrompete.}}{44}{figure.caption.30}
\defcounter {refsection}{0}\relax 
\contentsline {figure}{\numberline {30}{\ignorespaces Volume Rendering der Drehleier}}{49}{figure.caption.31}
\defcounter {refsection}{0}\relax 
\contentsline {figure}{\numberline {31}{\ignorespaces Volume Rendering der Damaru}}{49}{figure.caption.32}
\defcounter {refsection}{0}\relax 
\contentsline {figure}{\numberline {32}{\ignorespaces Szenenskript der Handharmonika}}{51}{figure.caption.33}
\defcounter {refsection}{0}\relax 
\contentsline {figure}{\numberline {33}{\ignorespaces Handharmonika von vorne}}{52}{figure.caption.34}
\defcounter {refsection}{0}\relax 
\contentsline {figure}{\numberline {34}{\ignorespaces Metallene Teile der Handharmonika}}{53}{figure.caption.35}
\defcounter {refsection}{0}\relax 
\contentsline {figure}{\numberline {35}{\ignorespaces Szenenskript der Drehleier}}{54}{figure.caption.36}
\defcounter {refsection}{0}\relax 
\contentsline {figure}{\numberline {36}{\ignorespaces Drehleier in AR auf Tablet}}{55}{figure.caption.37}
\defcounter {refsection}{0}\relax 
\contentsline {figure}{\numberline {37}{\ignorespaces Detailansicht vom Inneren der Drehleier in AR auf Tablet}}{56}{figure.caption.38}
\defcounter {refsection}{0}\relax 
\contentsline {figure}{\numberline {38}{\ignorespaces MUSICES in VR}}{58}{figure.caption.39}
